\headcommand {\slideentry {0}{0}{1}{1/1}{}{0}}
\headcommand {\beamer@framepages {1}{1}}
\headcommand {\slideentry {0}{0}{2}{2/4}{}{0}}
\headcommand {\beamer@framepages {2}{4}}
\headcommand {\slideentry {0}{0}{3}{5/5}{}{0}}
\headcommand {\beamer@framepages {5}{5}}
\headcommand {\slideentry {0}{0}{4}{6/6}{}{0}}
\headcommand {\beamer@framepages {6}{6}}
\headcommand {\slideentry {0}{0}{5}{7/7}{}{0}}
\headcommand {\beamer@framepages {7}{7}}
\headcommand {\slideentry {0}{0}{6}{8/8}{}{0}}
\headcommand {\beamer@framepages {8}{8}}
\headcommand {\slideentry {0}{0}{7}{9/9}{}{0}}
\headcommand {\beamer@framepages {9}{9}}
\headcommand {\slideentry {0}{0}{8}{10/11}{}{0}}
\headcommand {\beamer@framepages {10}{11}}
\headcommand {\slideentry {0}{0}{9}{12/13}{}{0}}
\headcommand {\beamer@framepages {12}{13}}
\headcommand {\slideentry {0}{0}{10}{14/15}{}{0}}
\headcommand {\beamer@framepages {14}{15}}
\headcommand {\slideentry {0}{0}{11}{16/18}{}{0}}
\headcommand {\beamer@framepages {16}{18}}
\headcommand {\slideentry {0}{0}{12}{19/19}{}{0}}
\headcommand {\beamer@framepages {19}{19}}
\headcommand {\slideentry {0}{0}{13}{20/20}{}{0}}
\headcommand {\beamer@framepages {20}{20}}
\headcommand {\slideentry {0}{0}{14}{21/22}{}{0}}
\headcommand {\beamer@framepages {21}{22}}
\headcommand {\slideentry {0}{0}{15}{23/24}{}{0}}
\headcommand {\beamer@framepages {23}{24}}
\headcommand {\slideentry {0}{0}{16}{25/25}{}{0}}
\headcommand {\beamer@framepages {25}{25}}
\headcommand {\slideentry {0}{0}{17}{26/26}{}{0}}
\headcommand {\beamer@framepages {26}{26}}
\headcommand {\slideentry {0}{0}{18}{27/27}{}{0}}
\headcommand {\beamer@framepages {27}{27}}
\headcommand {\slideentry {0}{0}{19}{28/29}{}{0}}
\headcommand {\beamer@framepages {28}{29}}
\headcommand {\slideentry {0}{0}{20}{30/30}{}{0}}
\headcommand {\beamer@framepages {30}{30}}
\headcommand {\slideentry {0}{0}{21}{31/31}{}{0}}
\headcommand {\beamer@framepages {31}{31}}
\headcommand {\slideentry {0}{0}{22}{32/32}{}{0}}
\headcommand {\beamer@framepages {32}{32}}
\headcommand {\slideentry {0}{0}{23}{33/33}{}{0}}
\headcommand {\beamer@framepages {33}{33}}
\headcommand {\slideentry {0}{0}{24}{34/34}{}{0}}
\headcommand {\beamer@framepages {34}{34}}
\headcommand {\slideentry {0}{0}{25}{35/35}{}{0}}
\headcommand {\beamer@framepages {35}{35}}
\headcommand {\slideentry {0}{0}{26}{36/36}{}{0}}
\headcommand {\beamer@framepages {36}{36}}
\headcommand {\slideentry {0}{0}{27}{37/40}{}{0}}
\headcommand {\beamer@framepages {37}{40}}
\headcommand {\slideentry {0}{0}{28}{41/43}{}{0}}
\headcommand {\beamer@framepages {41}{43}}
\headcommand {\slideentry {0}{0}{29}{44/44}{}{0}}
\headcommand {\beamer@framepages {44}{44}}
\headcommand {\slideentry {0}{0}{30}{45/45}{}{0}}
\headcommand {\beamer@framepages {45}{45}}
\headcommand {\slideentry {0}{0}{31}{46/46}{}{0}}
\headcommand {\beamer@framepages {46}{46}}
\headcommand {\slideentry {0}{0}{32}{47/47}{}{0}}
\headcommand {\beamer@framepages {47}{47}}
\headcommand {\slideentry {0}{0}{33}{48/48}{}{0}}
\headcommand {\beamer@framepages {48}{48}}
\headcommand {\slideentry {0}{0}{34}{49/49}{}{0}}
\headcommand {\beamer@framepages {49}{49}}
\headcommand {\slideentry {0}{0}{35}{50/50}{}{0}}
\headcommand {\beamer@framepages {50}{50}}
\headcommand {\slideentry {0}{0}{36}{51/51}{}{0}}
\headcommand {\beamer@framepages {51}{51}}
\headcommand {\slideentry {0}{0}{37}{52/52}{}{0}}
\headcommand {\beamer@framepages {52}{52}}
\headcommand {\beamer@partpages {1}{52}}
\headcommand {\beamer@subsectionpages {1}{52}}
\headcommand {\beamer@sectionpages {1}{52}}
\headcommand {\beamer@documentpages {52}}
\headcommand {\gdef \inserttotalframenumber {37}}
