\relax 
\providecommand\hyper@newdestlabel[2]{}
\providecommand\HyperFirstAtBeginDocument{\AtBeginDocument}
\HyperFirstAtBeginDocument{\ifx\hyper@anchor\@undefined
\global\let\oldcontentsline\contentsline
\gdef\contentsline#1#2#3#4{\oldcontentsline{#1}{#2}{#3}}
\global\let\oldnewlabel\newlabel
\gdef\newlabel#1#2{\newlabelxx{#1}#2}
\gdef\newlabelxx#1#2#3#4#5#6{\oldnewlabel{#1}{{#2}{#3}}}
\AtEndDocument{\ifx\hyper@anchor\@undefined
\let\contentsline\oldcontentsline
\let\newlabel\oldnewlabel
\fi}
\fi}
\global\let\hyper@last\relax 
\gdef\HyperFirstAtBeginDocument#1{#1}
\providecommand\HyField@AuxAddToFields[1]{}
\providecommand\HyField@AuxAddToCoFields[2]{}
\providecommand \oddpage@label [2]{}
\@writefile{nav}{\headcommand {\slideentry {0}{0}{1}{1/1}{}{0}}}
\@writefile{nav}{\headcommand {\beamer@framepages {1}{1}}}
\@writefile{nav}{\headcommand {\slideentry {0}{0}{2}{2/2}{}{0}}}
\@writefile{nav}{\headcommand {\beamer@framepages {2}{2}}}
\@writefile{nav}{\headcommand {\slideentry {0}{0}{3}{3/3}{}{0}}}
\@writefile{nav}{\headcommand {\beamer@framepages {3}{3}}}
\@writefile{nav}{\headcommand {\slideentry {0}{0}{4}{4/4}{}{0}}}
\@writefile{nav}{\headcommand {\beamer@framepages {4}{4}}}
\@writefile{nav}{\headcommand {\slideentry {0}{0}{5}{5/5}{}{0}}}
\@writefile{nav}{\headcommand {\beamer@framepages {5}{5}}}
\@writefile{nav}{\headcommand {\slideentry {0}{0}{6}{6/6}{}{0}}}
\@writefile{nav}{\headcommand {\beamer@framepages {6}{6}}}
\@writefile{nav}{\headcommand {\slideentry {0}{0}{7}{7/7}{}{0}}}
\@writefile{nav}{\headcommand {\beamer@framepages {7}{7}}}
\@writefile{nav}{\headcommand {\slideentry {0}{0}{8}{8/8}{}{0}}}
\@writefile{nav}{\headcommand {\beamer@framepages {8}{8}}}
\@writefile{nav}{\headcommand {\slideentry {0}{0}{9}{9/9}{}{0}}}
\@writefile{nav}{\headcommand {\beamer@framepages {9}{9}}}
\@writefile{nav}{\headcommand {\slideentry {0}{0}{10}{10/10}{}{0}}}
\@writefile{nav}{\headcommand {\beamer@framepages {10}{10}}}
\@writefile{nav}{\headcommand {\slideentry {0}{0}{11}{11/11}{}{0}}}
\@writefile{nav}{\headcommand {\beamer@framepages {11}{11}}}
\@writefile{nav}{\headcommand {\slideentry {0}{0}{12}{12/12}{}{0}}}
\@writefile{nav}{\headcommand {\beamer@framepages {12}{12}}}
\@writefile{nav}{\headcommand {\slideentry {0}{0}{13}{13/13}{}{0}}}
\@writefile{nav}{\headcommand {\beamer@framepages {13}{13}}}
\@writefile{nav}{\headcommand {\slideentry {0}{0}{14}{14/15}{}{0}}}
\@writefile{nav}{\headcommand {\beamer@framepages {14}{15}}}
\@writefile{nav}{\headcommand {\slideentry {0}{0}{15}{16/16}{}{0}}}
\@writefile{nav}{\headcommand {\beamer@framepages {16}{16}}}
\@writefile{nav}{\headcommand {\slideentry {0}{0}{16}{17/18}{}{0}}}
\@writefile{nav}{\headcommand {\beamer@framepages {17}{18}}}
\@writefile{nav}{\headcommand {\slideentry {0}{0}{17}{19/19}{}{0}}}
\@writefile{nav}{\headcommand {\beamer@framepages {19}{19}}}
\@writefile{nav}{\headcommand {\slideentry {0}{0}{18}{20/23}{}{0}}}
\@writefile{nav}{\headcommand {\beamer@framepages {20}{23}}}
\@writefile{nav}{\headcommand {\slideentry {0}{0}{19}{24/24}{}{0}}}
\@writefile{nav}{\headcommand {\beamer@framepages {24}{24}}}
\@writefile{nav}{\headcommand {\slideentry {0}{0}{20}{25/25}{}{0}}}
\@writefile{nav}{\headcommand {\beamer@framepages {25}{25}}}
\@writefile{nav}{\headcommand {\slideentry {0}{0}{21}{26/28}{}{0}}}
\@writefile{nav}{\headcommand {\beamer@framepages {26}{28}}}
\@writefile{nav}{\headcommand {\slideentry {0}{0}{22}{29/34}{}{0}}}
\@writefile{nav}{\headcommand {\beamer@framepages {29}{34}}}
\@writefile{nav}{\headcommand {\slideentry {0}{0}{23}{35/37}{}{0}}}
\@writefile{nav}{\headcommand {\beamer@framepages {35}{37}}}
\@writefile{nav}{\headcommand {\slideentry {0}{0}{24}{38/38}{}{0}}}
\@writefile{nav}{\headcommand {\beamer@framepages {38}{38}}}
\@writefile{nav}{\headcommand {\slideentry {0}{0}{25}{39/39}{}{0}}}
\@writefile{nav}{\headcommand {\beamer@framepages {39}{39}}}
\@writefile{nav}{\headcommand {\slideentry {0}{0}{26}{40/40}{}{0}}}
\@writefile{nav}{\headcommand {\beamer@framepages {40}{40}}}
\@writefile{nav}{\headcommand {\slideentry {0}{0}{27}{41/41}{}{0}}}
\@writefile{nav}{\headcommand {\beamer@framepages {41}{41}}}
\@writefile{nav}{\headcommand {\slideentry {0}{0}{28}{42/42}{}{0}}}
\@writefile{nav}{\headcommand {\beamer@framepages {42}{42}}}
\@writefile{nav}{\headcommand {\slideentry {0}{0}{29}{43/43}{}{0}}}
\@writefile{nav}{\headcommand {\beamer@framepages {43}{43}}}
\@writefile{nav}{\headcommand {\slideentry {0}{0}{30}{44/46}{}{0}}}
\@writefile{nav}{\headcommand {\beamer@framepages {44}{46}}}
\@writefile{nav}{\headcommand {\slideentry {0}{0}{31}{47/48}{}{0}}}
\@writefile{nav}{\headcommand {\beamer@framepages {47}{48}}}
\@writefile{nav}{\headcommand {\slideentry {0}{0}{32}{49/49}{}{0}}}
\@writefile{nav}{\headcommand {\beamer@framepages {49}{49}}}
\@writefile{nav}{\headcommand {\slideentry {0}{0}{33}{50/50}{}{0}}}
\@writefile{nav}{\headcommand {\beamer@framepages {50}{50}}}
\@writefile{nav}{\headcommand {\slideentry {0}{0}{34}{51/51}{}{0}}}
\@writefile{nav}{\headcommand {\beamer@framepages {51}{51}}}
\@writefile{nav}{\headcommand {\slideentry {0}{0}{35}{52/54}{}{0}}}
\@writefile{nav}{\headcommand {\beamer@framepages {52}{54}}}
\@writefile{nav}{\headcommand {\slideentry {0}{0}{36}{55/55}{}{0}}}
\@writefile{nav}{\headcommand {\beamer@framepages {55}{55}}}
\@writefile{nav}{\headcommand {\slideentry {0}{0}{37}{56/56}{}{0}}}
\@writefile{nav}{\headcommand {\beamer@framepages {56}{56}}}
\@writefile{nav}{\headcommand {\beamer@partpages {1}{56}}}
\@writefile{nav}{\headcommand {\beamer@subsectionpages {1}{56}}}
\@writefile{nav}{\headcommand {\beamer@sectionpages {1}{56}}}
\@writefile{nav}{\headcommand {\beamer@documentpages {56}}}
\@writefile{nav}{\headcommand {\def \inserttotalframenumber {37}}}
