\relax 
\providecommand\hyper@newdestlabel[2]{}
\providecommand\HyperFirstAtBeginDocument{\AtBeginDocument}
\HyperFirstAtBeginDocument{\ifx\hyper@anchor\@undefined
\global\let\oldcontentsline\contentsline
\gdef\contentsline#1#2#3#4{\oldcontentsline{#1}{#2}{#3}}
\global\let\oldnewlabel\newlabel
\gdef\newlabel#1#2{\newlabelxx{#1}#2}
\gdef\newlabelxx#1#2#3#4#5#6{\oldnewlabel{#1}{{#2}{#3}}}
\AtEndDocument{\ifx\hyper@anchor\@undefined
\let\contentsline\oldcontentsline
\let\newlabel\oldnewlabel
\fi}
\fi}
\global\let\hyper@last\relax 
\gdef\HyperFirstAtBeginDocument#1{#1}
\providecommand\HyField@AuxAddToFields[1]{}
\providecommand\HyField@AuxAddToCoFields[2]{}
\providecommand \oddpage@label [2]{}
\@writefile{nav}{\headcommand {\slideentry {0}{0}{1}{1/1}{}{0}}}
\@writefile{nav}{\headcommand {\beamer@framepages {1}{1}}}
\@writefile{nav}{\headcommand {\slideentry {0}{0}{2}{2/2}{}{0}}}
\@writefile{nav}{\headcommand {\beamer@framepages {2}{2}}}
\@writefile{nav}{\headcommand {\slideentry {0}{0}{3}{3/3}{}{0}}}
\@writefile{nav}{\headcommand {\beamer@framepages {3}{3}}}
\@writefile{nav}{\headcommand {\slideentry {0}{0}{4}{4/4}{}{0}}}
\@writefile{nav}{\headcommand {\beamer@framepages {4}{4}}}
\@writefile{nav}{\headcommand {\slideentry {0}{0}{5}{5/6}{}{0}}}
\@writefile{nav}{\headcommand {\beamer@framepages {5}{6}}}
\@writefile{nav}{\headcommand {\slideentry {0}{0}{6}{7/7}{}{0}}}
\@writefile{nav}{\headcommand {\beamer@framepages {7}{7}}}
\@writefile{nav}{\headcommand {\slideentry {0}{0}{7}{8/8}{}{0}}}
\@writefile{nav}{\headcommand {\beamer@framepages {8}{8}}}
\@writefile{nav}{\headcommand {\slideentry {0}{0}{8}{9/13}{}{0}}}
\@writefile{nav}{\headcommand {\beamer@framepages {9}{13}}}
\@writefile{nav}{\headcommand {\slideentry {0}{0}{9}{14/17}{}{0}}}
\@writefile{nav}{\headcommand {\beamer@framepages {14}{17}}}
\@writefile{nav}{\headcommand {\slideentry {0}{0}{10}{18/21}{}{0}}}
\@writefile{nav}{\headcommand {\beamer@framepages {18}{21}}}
\@writefile{nav}{\headcommand {\slideentry {0}{0}{11}{22/22}{}{0}}}
\@writefile{nav}{\headcommand {\beamer@framepages {22}{22}}}
\@writefile{nav}{\headcommand {\slideentry {0}{0}{12}{23/25}{}{0}}}
\@writefile{nav}{\headcommand {\beamer@framepages {23}{25}}}
\@writefile{nav}{\headcommand {\slideentry {0}{0}{13}{26/26}{}{0}}}
\@writefile{nav}{\headcommand {\beamer@framepages {26}{26}}}
\@writefile{nav}{\headcommand {\slideentry {0}{0}{14}{27/27}{}{0}}}
\@writefile{nav}{\headcommand {\beamer@framepages {27}{27}}}
\@writefile{nav}{\headcommand {\slideentry {0}{0}{15}{28/32}{}{0}}}
\@writefile{nav}{\headcommand {\beamer@framepages {28}{32}}}
\@writefile{nav}{\headcommand {\slideentry {0}{0}{16}{33/33}{}{0}}}
\@writefile{nav}{\headcommand {\beamer@framepages {33}{33}}}
\@writefile{nav}{\headcommand {\slideentry {0}{0}{17}{34/34}{}{0}}}
\@writefile{nav}{\headcommand {\beamer@framepages {34}{34}}}
\@writefile{nav}{\headcommand {\slideentry {0}{0}{18}{35/35}{}{0}}}
\@writefile{nav}{\headcommand {\beamer@framepages {35}{35}}}
\@writefile{nav}{\headcommand {\slideentry {0}{0}{19}{36/36}{}{0}}}
\@writefile{nav}{\headcommand {\beamer@framepages {36}{36}}}
\@writefile{nav}{\headcommand {\slideentry {0}{0}{20}{37/38}{}{0}}}
\@writefile{nav}{\headcommand {\beamer@framepages {37}{38}}}
\@writefile{nav}{\headcommand {\slideentry {0}{0}{21}{39/39}{}{0}}}
\@writefile{nav}{\headcommand {\beamer@framepages {39}{39}}}
\@writefile{nav}{\headcommand {\slideentry {0}{0}{22}{40/40}{}{0}}}
\@writefile{nav}{\headcommand {\beamer@framepages {40}{40}}}
\@writefile{nav}{\headcommand {\slideentry {0}{0}{23}{41/41}{}{0}}}
\@writefile{nav}{\headcommand {\beamer@framepages {41}{41}}}
\@writefile{nav}{\headcommand {\slideentry {0}{0}{24}{42/44}{}{0}}}
\@writefile{nav}{\headcommand {\beamer@framepages {42}{44}}}
\@writefile{nav}{\headcommand {\slideentry {0}{0}{25}{45/45}{}{0}}}
\@writefile{nav}{\headcommand {\beamer@framepages {45}{45}}}
\@writefile{nav}{\headcommand {\slideentry {0}{0}{26}{46/46}{}{0}}}
\@writefile{nav}{\headcommand {\beamer@framepages {46}{46}}}
\@writefile{nav}{\headcommand {\slideentry {0}{0}{27}{47/47}{}{0}}}
\@writefile{nav}{\headcommand {\beamer@framepages {47}{47}}}
\@writefile{nav}{\headcommand {\slideentry {0}{0}{28}{48/48}{}{0}}}
\@writefile{nav}{\headcommand {\beamer@framepages {48}{48}}}
\@writefile{nav}{\headcommand {\slideentry {0}{0}{29}{49/49}{}{0}}}
\@writefile{nav}{\headcommand {\beamer@framepages {49}{49}}}
\@writefile{nav}{\headcommand {\slideentry {0}{0}{30}{50/50}{}{0}}}
\@writefile{nav}{\headcommand {\beamer@framepages {50}{50}}}
\@writefile{nav}{\headcommand {\slideentry {0}{0}{31}{51/51}{}{0}}}
\@writefile{nav}{\headcommand {\beamer@framepages {51}{51}}}
\@writefile{nav}{\headcommand {\beamer@partpages {1}{51}}}
\@writefile{nav}{\headcommand {\beamer@subsectionpages {1}{51}}}
\@writefile{nav}{\headcommand {\beamer@sectionpages {1}{51}}}
\@writefile{nav}{\headcommand {\beamer@documentpages {51}}}
\@writefile{nav}{\headcommand {\def \inserttotalframenumber {31}}}
