"0","glm.fit <- glmnetUtils::cv.glmnet(Selected ~ . - Time - Priority, data = mms.target, family = ""binomial"")"
"0","log.odds <- predict(glm.fit, mms.target)"
"0","probabilities <- exp(log.odds) / (1 + exp(log.odds))"
