\headcommand {\slideentry {0}{0}{1}{1/1}{}{0}}
\headcommand {\beamer@framepages {1}{1}}
\headcommand {\slideentry {0}{0}{2}{2/2}{}{0}}
\headcommand {\beamer@framepages {2}{2}}
\headcommand {\slideentry {0}{0}{3}{3/3}{}{0}}
\headcommand {\beamer@framepages {3}{3}}
\headcommand {\slideentry {0}{0}{4}{4/5}{}{0}}
\headcommand {\beamer@framepages {4}{5}}
\headcommand {\slideentry {0}{0}{5}{6/6}{}{0}}
\headcommand {\beamer@framepages {6}{6}}
\headcommand {\slideentry {0}{0}{6}{7/7}{}{0}}
\headcommand {\beamer@framepages {7}{7}}
\headcommand {\slideentry {0}{0}{7}{8/10}{}{0}}
\headcommand {\beamer@framepages {8}{10}}
\headcommand {\slideentry {0}{0}{8}{11/11}{}{0}}
\headcommand {\beamer@framepages {11}{11}}
\headcommand {\slideentry {0}{0}{9}{12/17}{}{0}}
\headcommand {\beamer@framepages {12}{17}}
\headcommand {\slideentry {0}{0}{10}{18/18}{}{0}}
\headcommand {\beamer@framepages {18}{18}}
\headcommand {\slideentry {0}{0}{11}{19/19}{}{0}}
\headcommand {\beamer@framepages {19}{19}}
\headcommand {\slideentry {0}{0}{12}{20/20}{}{0}}
\headcommand {\beamer@framepages {20}{20}}
\headcommand {\slideentry {0}{0}{13}{21/21}{}{0}}
\headcommand {\beamer@framepages {21}{21}}
\headcommand {\slideentry {0}{0}{14}{22/22}{}{0}}
\headcommand {\beamer@framepages {22}{22}}
\headcommand {\slideentry {0}{0}{15}{23/23}{}{0}}
\headcommand {\beamer@framepages {23}{23}}
\headcommand {\slideentry {0}{0}{16}{24/25}{}{0}}
\headcommand {\beamer@framepages {24}{25}}
\headcommand {\slideentry {0}{0}{17}{26/27}{}{0}}
\headcommand {\beamer@framepages {26}{27}}
\headcommand {\slideentry {0}{0}{18}{28/29}{}{0}}
\headcommand {\beamer@framepages {28}{29}}
\headcommand {\slideentry {0}{0}{19}{30/31}{}{0}}
\headcommand {\beamer@framepages {30}{31}}
\headcommand {\slideentry {0}{0}{20}{32/33}{}{0}}
\headcommand {\beamer@framepages {32}{33}}
\headcommand {\slideentry {0}{0}{21}{34/35}{}{0}}
\headcommand {\beamer@framepages {34}{35}}
\headcommand {\slideentry {0}{0}{22}{36/36}{}{0}}
\headcommand {\beamer@framepages {36}{36}}
\headcommand {\slideentry {0}{0}{23}{37/39}{}{0}}
\headcommand {\beamer@framepages {37}{39}}
\headcommand {\slideentry {0}{0}{24}{40/43}{}{0}}
\headcommand {\beamer@framepages {40}{43}}
\headcommand {\slideentry {0}{0}{25}{44/46}{}{0}}
\headcommand {\beamer@framepages {44}{46}}
\headcommand {\slideentry {0}{0}{26}{47/49}{}{0}}
\headcommand {\beamer@framepages {47}{49}}
\headcommand {\slideentry {0}{0}{27}{50/50}{}{0}}
\headcommand {\beamer@framepages {50}{50}}
\headcommand {\slideentry {0}{0}{28}{51/51}{}{0}}
\headcommand {\beamer@framepages {51}{51}}
\headcommand {\slideentry {0}{0}{29}{52/52}{}{0}}
\headcommand {\beamer@framepages {52}{52}}
\headcommand {\slideentry {0}{0}{30}{53/53}{}{0}}
\headcommand {\beamer@framepages {53}{53}}
\headcommand {\slideentry {0}{0}{31}{54/54}{}{0}}
\headcommand {\beamer@framepages {54}{54}}
\headcommand {\slideentry {0}{0}{32}{55/55}{}{0}}
\headcommand {\beamer@framepages {55}{55}}
\headcommand {\slideentry {0}{0}{33}{56/56}{}{0}}
\headcommand {\beamer@framepages {56}{56}}
\headcommand {\slideentry {0}{0}{34}{57/57}{}{0}}
\headcommand {\beamer@framepages {57}{57}}
\headcommand {\slideentry {0}{0}{35}{58/58}{}{0}}
\headcommand {\beamer@framepages {58}{58}}
\headcommand {\slideentry {0}{0}{36}{59/59}{}{0}}
\headcommand {\beamer@framepages {59}{59}}
\headcommand {\slideentry {0}{0}{37}{60/60}{}{0}}
\headcommand {\beamer@framepages {60}{60}}
\headcommand {\slideentry {0}{0}{38}{61/61}{}{0}}
\headcommand {\beamer@framepages {61}{61}}
\headcommand {\slideentry {0}{0}{39}{62/63}{}{0}}
\headcommand {\beamer@framepages {62}{63}}
\headcommand {\slideentry {0}{0}{40}{64/64}{}{0}}
\headcommand {\beamer@framepages {64}{64}}
\headcommand {\slideentry {0}{0}{41}{65/68}{}{0}}
\headcommand {\beamer@framepages {65}{68}}
\headcommand {\slideentry {0}{0}{42}{69/69}{}{0}}
\headcommand {\beamer@framepages {69}{69}}
\headcommand {\slideentry {0}{0}{43}{70/70}{}{0}}
\headcommand {\beamer@framepages {70}{70}}
\headcommand {\slideentry {0}{0}{44}{71/73}{}{0}}
\headcommand {\beamer@framepages {71}{73}}
\headcommand {\slideentry {0}{0}{45}{74/79}{}{0}}
\headcommand {\beamer@framepages {74}{79}}
\headcommand {\slideentry {0}{0}{46}{80/80}{}{0}}
\headcommand {\beamer@framepages {80}{80}}
\headcommand {\slideentry {0}{0}{47}{81/81}{}{0}}
\headcommand {\beamer@framepages {81}{81}}
\headcommand {\slideentry {0}{0}{48}{82/84}{}{0}}
\headcommand {\beamer@framepages {82}{84}}
\headcommand {\slideentry {0}{0}{49}{85/85}{}{0}}
\headcommand {\beamer@framepages {85}{85}}
\headcommand {\slideentry {0}{0}{50}{86/86}{}{0}}
\headcommand {\beamer@framepages {86}{86}}
\headcommand {\slideentry {0}{0}{51}{87/88}{}{0}}
\headcommand {\beamer@framepages {87}{88}}
\headcommand {\slideentry {0}{0}{52}{89/89}{}{0}}
\headcommand {\beamer@framepages {89}{89}}
\headcommand {\slideentry {0}{0}{53}{90/92}{}{0}}
\headcommand {\beamer@framepages {90}{92}}
\headcommand {\slideentry {0}{0}{54}{93/94}{}{0}}
\headcommand {\beamer@framepages {93}{94}}
\headcommand {\slideentry {0}{0}{55}{95/96}{}{0}}
\headcommand {\beamer@framepages {95}{96}}
\headcommand {\slideentry {0}{0}{56}{97/97}{}{0}}
\headcommand {\beamer@framepages {97}{97}}
\headcommand {\slideentry {0}{0}{57}{98/98}{}{0}}
\headcommand {\beamer@framepages {98}{98}}
\headcommand {\slideentry {0}{0}{58}{99/100}{}{0}}
\headcommand {\beamer@framepages {99}{100}}
\headcommand {\slideentry {0}{0}{59}{101/101}{}{0}}
\headcommand {\beamer@framepages {101}{101}}
\headcommand {\slideentry {0}{0}{60}{102/102}{}{0}}
\headcommand {\beamer@framepages {102}{102}}
\headcommand {\slideentry {0}{0}{61}{103/105}{}{0}}
\headcommand {\beamer@framepages {103}{105}}
\headcommand {\slideentry {0}{0}{62}{106/106}{}{0}}
\headcommand {\beamer@framepages {106}{106}}
\headcommand {\slideentry {0}{0}{63}{107/107}{}{0}}
\headcommand {\beamer@framepages {107}{107}}
\headcommand {\slideentry {0}{0}{64}{108/108}{}{0}}
\headcommand {\beamer@framepages {108}{108}}
\headcommand {\slideentry {0}{0}{65}{109/109}{}{0}}
\headcommand {\beamer@framepages {109}{109}}
\headcommand {\slideentry {0}{0}{66}{110/110}{}{0}}
\headcommand {\beamer@framepages {110}{110}}
\headcommand {\slideentry {0}{0}{67}{111/111}{}{0}}
\headcommand {\beamer@framepages {111}{111}}
\headcommand {\beamer@partpages {1}{111}}
\headcommand {\beamer@subsectionpages {1}{111}}
\headcommand {\beamer@sectionpages {1}{111}}
\headcommand {\beamer@documentpages {111}}
\headcommand {\def \inserttotalframenumber {67}}
